<svg xmlns="http://www.w3.org/2000/svg" width="12" height="5" viewBox="0 0 12 5">
    <path fill="#302F30" fill-rule="nonzero" d="M5.672 4.866L1.083.877A.5.5 0 0 1 1.411 0h9.178a.5.5 0 0 1 .328.877L6.328 4.866a.5.5 0 0 1-.656 0z"/>
</svg>
