<?xml version="1.0" encoding="UTF-8"?>
<svg width="9px" height="18px" viewBox="0 0 9 18" version="1.1" xmlns="http://www.w3.org/2000/svg" xmlns:xlink="http://www.w3.org/1999/xlink">
    <!-- Generator: Sketch 54.1 (76490) - https://sketchapp.com -->
    <title>facebook-2</title>
    <desc>Created with Sketch.</desc>
    <g id="Log-In/Sign-Up" stroke="none" stroke-width="1" fill="none" fill-rule="evenodd">
        <g id="Login" transform="translate(-599.000000, -545.000000)" fill="#FFFFFF">
            <g id="Group-2" transform="translate(578.000000, 531.000000)">
                <g id="facebook-2" transform="translate(21.000000, 14.000000)">
                    <path d="M5.817,17.9206442 L5.817,9.74613462 L8.45925,9.74613462 L8.85483333,6.56039423 L5.817,6.56039423 L5.817,4.52639423 C5.817,3.60406731 6.06366667,2.97545192 7.33741667,2.97545192 L8.96191667,2.97467308 L8.96191667,0.125394231 C8.68083333,0.0867115385 7.71658333,0 6.59475,0 C4.25258333,0 2.64908333,1.48456731 2.64908333,4.21104808 L2.64908333,6.56048077 L0,6.56048077 L0,9.74622115 L2.649,9.74622115 L2.649,17.9207308 L5.817,17.9206442 Z" id="Path"></path>
                </g>
            </g>
        </g>
    </g>
</svg>