<?xml version="1.0" encoding="UTF-8"?>
<svg width="20px" height="20px" viewBox="0 0 20 20" version="1.1" xmlns="http://www.w3.org/2000/svg" xmlns:xlink="http://www.w3.org/1999/xlink">
    <!-- Generator: Sketch 54.1 (76490) - https://sketchapp.com -->
    <title>iconfinder_gluten-free_870235 copy</title>
    <desc>Created with Sketch.</desc>
    <g id="Symbols" stroke="none" stroke-width="1" fill="none" fill-rule="evenodd">
        <g id="Dietary-Restrictions" transform="translate(-552.000000, -8.000000)" fill="#000000" fill-rule="nonzero">
            <g id="iconfinder_gluten-free_870235-copy" transform="translate(552.000000, 8.000000)">
                <path d="M10,1.77635684e-15 C4.48609375,1.77635684e-15 1.77635684e-15,4.4859375 1.77635684e-15,10 C1.77635684e-15,15.5140625 4.4859375,20 10,20 C15.5142188,20 20,15.5140625 20,10 C20,4.4859375 15.5142188,1.77635684e-15 10,1.77635684e-15 Z M10,19.0625 C7.6696875,19.0625 5.5425,18.1779687 3.9353125,16.7276563 L5.91046875,14.7525 C5.76390625,14.3051563 5.72546875,13.895625 5.7209375,13.6164063 L3.27265625,16.0648438 C1.8221875,14.4573438 0.9375,12.3303125 0.9375,10 C0.9375,5.00296875 5.00296875,0.9375 10,0.9375 C12.3303125,0.9375 14.4573438,1.8221875 16.0646875,3.27234375 L13.361875,5.9753125 C13.6170313,6.001875 13.7842188,6.04484375 13.8092188,6.05171875 L14.2126563,6.161875 L14.430625,6.23234375 L16.7276562,3.9353125 C18.178125,5.5425 19.0625,7.6696875 19.0625,10 C19.0625,14.996875 14.9971875,19.0625 10,19.0625 Z" id="Shape"></path>
                <path d="M8.9159375,13.92 C8.41625,13.4867187 7.86046875,13.3196875 7.39453125,13.2684375 C6.80234375,13.203125 6.355625,13.3248437 6.355625,13.3248437 C6.355625,13.3248437 6.3071875,13.7234375 6.419375,14.2434375 C6.5228125,14.7221875 6.76203125,15.3039062 7.30609375,15.7757812 C8.44078125,16.7603125 9.8665625,16.91875 9.8665625,16.91875 C9.8665625,16.91875 10.0509375,14.9048437 8.9159375,13.92 Z" id="Path"></path>
                <path d="M11.2304688,5.13 C11.2304688,3.45828125 10.0020312,2.54375 10.0020312,2.54375 C10.0020312,2.54375 8.7734375,3.45828125 8.7734375,5.13 C8.7734375,6.80171875 10.0020312,7.71625 10.0020312,7.71625 C10.0020312,7.71625 11.2304688,6.80171875 11.2304688,5.13 Z" id="Path"></path>
                <path d="M10.1770312,9.1603125 C10.089375,9.7671875 10.1334375,10.2485937 10.1334375,10.2485937 C10.1334375,10.2485937 10.264375,10.2335937 10.4764062,10.1867187 C10.9678125,10.0778125 11.90125,9.79390625 12.6940625,9.1059375 C13.4826562,8.4215625 13.63375,7.5059375 13.6529687,7.01015625 C13.66125,6.7925 13.644375,6.65484375 13.644375,6.65484375 C13.644375,6.65484375 13.2690625,6.55359375 12.7510937,6.58640625 C12.2582812,6.61765625 11.636875,6.77 11.0839062,7.25015625 C10.5032812,7.75328125 10.2682812,8.5253125 10.1770312,9.1603125 Z" id="Path"></path>
                <path d="M7.3059375,9.10578125 C7.95921875,9.6725 8.70734375,9.9646875 9.2259375,10.11125 C9.60828125,10.2190625 9.86640625,10.2485937 9.86640625,10.2485937 C9.86640625,10.2485937 9.895625,9.92703125 9.85859375,9.4784375 C9.80328125,8.80375 9.5975,7.84125 8.91578125,7.24984375 C7.78109375,6.26515625 6.35546875,6.6546875 6.35546875,6.6546875 C6.35546875,6.6546875 6.17109375,8.12125 7.3059375,9.10578125 Z" id="Path"></path>
                <path d="M11.0840625,10.5851562 C9.94828125,11.5695312 10.1334375,13.5839062 10.1334375,13.5839062 C10.1334375,13.5839062 11.5592187,13.424375 12.694375,12.4410937 C13.8290625,11.4559375 13.6446875,9.98984375 13.6446875,9.98984375 C13.6446875,9.98984375 12.2182812,9.6003125 11.0840625,10.5851562 Z" id="Path"></path>
                <path d="M7.3059375,12.4415625 C7.476875,12.5896875 7.654375,12.7173437 7.83265625,12.8301562 C8.8378125,13.4673437 9.86640625,13.5839062 9.86640625,13.5839062 C9.86640625,13.5839062 9.9875,12.2596875 9.4284375,11.234375 C9.29796875,10.995 9.130625,10.7717187 8.91578125,10.585625 C8.88546875,10.559375 8.85421875,10.5376562 8.82359375,10.5134375 C7.7053125,9.62515625 6.35546875,9.9903125 6.35546875,9.9903125 C6.35546875,9.9903125 6.19546875,11.2684375 7.09765625,12.239375 C7.161875,12.3082812 7.230625,12.37625 7.3059375,12.4415625 Z" id="Path"></path>
                <path d="M11.0840625,13.92 C9.94828125,14.9045312 10.1334375,16.91875 10.1334375,16.91875 C10.1334375,16.91875 11.5592187,16.7601562 12.694375,15.7757812 C13.8290625,14.7910937 13.6446875,13.3248437 13.6446875,13.3248437 C13.6446875,13.3248437 12.2182812,12.9354687 11.0840625,13.92 Z" id="Path"></path>
            </g>
        </g>
    </g>
</svg>