<svg xmlns="http://www.w3.org/2000/svg" width="28" height="28" viewBox="0 0 28 28">
    <g fill="none" fill-rule="evenodd" transform="translate(0 -3)">
        <circle cx="14" cy="17" r="13.44" stroke="#000" stroke-linecap="round" stroke-width="1.094"/>
        <path d="M0 0h28v28H0z"/>
        <path fill="#222" fill-rule="nonzero" d="M13.266 23.008v-8.422h1.343v8.422h-1.343zm.671-10.133a.94.94 0 0 1-.937-.938.94.94 0 0 1 .938-.937.94.94 0 0 1 .937.938.94.94 0 0 1-.938.937z"/>
    </g>
</svg>
